week3
…
  measure_distance(c(b0, b1), sim1)
}

models <- 
  models %>% 
  mutate(dist = purrr::map2_dbl(b0, b1, .f = sim1_dist))

models

# A tibble: 250 × 3
        b0     b1  dist
     <dbl>  <dbl> <dbl>
 1   1.77   1.12   8.32
 2  36.2   -0.915 17.9 
 3  34.6   -3.41  15.8 
 4  -1.61  -3.22  38.0 
 5  38.2    2.18  34.8 
 6   2.04   4.94  16.2 
 7 -18.5    2.32  21.3 
 8  -4.97  -0.329 23.4 
 9  -0.192  4.14   9.52
10  -3.31  -0.285 21.6 
# ℹ 240 more rows
…
# fit a simple model and generate predictions again
mod3_1 <- lm(y ~ x1 + x2, data = sim3)
mod3_2 <- lm(y ~ x1 + x2 + x1*x2, data = sim3)

# generate model predictions
grid <- 
  sim3 %>% 
  data_grid(x1, x2) %>% 
  add_predictions(mod3_1, var = "mod1") %>%
  add_predictions(mod3_2, var = "mod2")
grid

# A tibble: 40 × 4
      x1 x2     mod1  mod2
   <int> <fct> <dbl> <dbl>
 1     1 a      1.67  1.21
 2     1 b      4.56  7.52
 3     1 c      6.48  5.71
 4     1 d      4.03  2.32
 5     2 a      1.48  1.12
 6     2 b      4.37  6.66
 7     2 c      6.28  5.68
 8     2 d      3.84  2.50
 9     3 a      1.28  1.02
10     3 b      4.17  5.81
# ℹ 30 more rows
…
